<svg width="307" height="80" viewBox="0 0 307 80" fill="none" xmlns="http://www.w3.org/2000/svg">
<path d="M56.4549 38.4607L56.0843 37.7517L54.3798 38.6427L56.2134 39.2233L56.4549 38.4607ZM66.5451 45.3306L65.9068 45.8129L65.9121 45.8197L66.5451 45.3306ZM62.4661 72.2734L62.9205 72.9319L62.9224 72.9305L62.4661 72.2734ZM1.2811 77.5332H0.4811V78.3332H1.2811V77.5332ZM1.2811 2.39372V1.59372H0.4811V2.39372H1.2811ZM59.0312 7.65348L58.5635 8.30254L58.568 8.30574L59.0312 7.65348ZM63.7542 31.6981L63.0758 31.2741L63.072 31.2803L63.0682 31.2865L63.7542 31.6981ZM18.5632 15.4895V14.6895H17.7632V15.4895H18.5632ZM18.5632 33.2009H17.7632V34.0009H18.5632V33.2009ZM45.6134 17.7436L45.1647 18.406L45.1722 18.411L45.1797 18.4159L45.6134 17.7436ZM49.1557 62.1833L48.7261 61.5083L48.7168 61.5144L49.1557 62.1833ZM18.5632 45.8673V45.0673H17.7632V45.8673H18.5632ZM18.5632 64.4375H17.7632V65.2375H18.5632V64.4375ZM56.2134 39.2233C60.3681 40.539 63.5852 42.7401 65.9068 45.8128L67.1834 44.8483C64.6389 41.4805 61.1291 39.1017 56.6965 37.698L56.2134 39.2233ZM65.9121 45.8197C68.2193 48.8056 69.3947 52.5253 69.3947 57.0309H70.9947C70.9947 52.2335 69.7371 48.153 67.1781 44.8414L65.9121 45.8197ZM69.3947 57.0309C69.3947 63.3678 66.9346 68.1964 62.0098 71.6163L62.9224 72.9305C68.3025 69.1944 70.9947 63.8612 70.9947 57.0309H69.3947ZM62.0117 71.615C57.122 74.9896 49.8684 76.7332 40.1389 76.7332V78.3332C50.0173 78.3332 57.6485 76.5703 62.9205 72.9319L62.0117 71.615ZM40.1389 76.7332L1.2811 76.7332V78.3332L40.1389 78.3332V76.7332ZM2.0811 77.5332L2.0811 2.39372H0.4811L0.4811 77.5332H2.0811ZM1.2811 3.19372L37.9921 3.19372V1.59372L1.2811 1.59372V3.19372ZM37.9921 3.19372C47.0672 3.19372 53.8882 4.93359 58.5635 8.30253L59.4989 7.00444C54.4418 3.36035 47.2367 1.59372 37.9921 1.59372V3.19372ZM58.568 8.30574C63.2963 11.6636 65.6378 16.1803 65.6378 21.93H67.2378C67.2378 15.6574 64.6415 10.6564 59.4944 7.00122L58.568 8.30574ZM65.6378 21.93C65.6378 25.4423 64.7789 28.5491 63.0758 31.2741L64.4326 32.1221C66.3076 29.1222 67.2378 25.7169 67.2378 21.93H65.6378ZM63.0682 31.2865C61.4314 34.0145 59.1113 36.1694 56.0843 37.7517L56.8256 39.1697C60.096 37.4601 62.6421 35.1066 64.4402 32.1097L63.0682 31.2865ZM17.7632 15.4895L17.7632 33.2009H19.3632L19.3632 15.4895H17.7632ZM18.5632 34.0009H35.8453V32.4009H18.5632V34.0009ZM35.8453 34.0009C40.2107 34.0009 43.6534 33.2408 46.0621 31.6091L45.1647 30.2844C43.1366 31.6583 40.0672 32.4009 35.8453 32.4009V34.0009ZM46.0621 31.6091C48.5237 29.9415 49.741 27.4612 49.741 24.2915H48.141C48.141 26.9898 47.1399 28.9464 45.1647 30.2844L46.0621 31.6091ZM49.741 24.2915C49.741 21.1216 48.5224 18.6684 46.0471 17.0714L45.1797 18.4159C47.1412 19.6814 48.141 21.5934 48.141 24.2915H49.741ZM46.0621 17.0813C43.6534 15.4496 40.2107 14.6895 35.8453 14.6895V16.2895C40.0672 16.2895 43.1366 17.0321 45.1647 18.406L46.0621 17.0813ZM35.8453 14.6895H18.5632V16.2895H35.8453V14.6895ZM38.8508 65.2375C43.4928 65.2375 47.1133 64.4805 49.5946 62.8521L48.7168 61.5144C46.6182 62.8916 43.3687 63.6375 38.8508 63.6375V65.2375ZM49.5852 62.8582C52.2096 61.1881 53.498 58.5879 53.498 55.206H51.898C51.898 58.1216 50.8248 60.1729 48.7262 61.5084L49.5852 62.8582ZM53.498 55.206C53.498 51.864 52.2408 49.2634 49.6835 47.5387C47.1823 45.8519 43.5314 45.0673 38.8508 45.0673V46.6673C43.4017 46.6673 46.6743 47.4391 48.7889 48.8652C50.8473 50.2535 51.898 52.3222 51.898 55.206H53.498ZM38.8508 45.0673L18.5632 45.0673V46.6673L38.8508 46.6673V45.0673ZM17.7632 45.8673L17.7632 64.4375H19.3632L19.3632 45.8673H17.7632ZM18.5632 65.2375L38.8508 65.2375V63.6375L18.5632 63.6375V65.2375ZM83.3601 2.39372V1.59372H82.5601V2.39372H83.3601ZM100.75 2.39372H101.55V1.59372H100.75V2.39372ZM100.75 63.364H99.9495V64.164H100.75V63.364ZM138.427 63.364H139.227V62.564H138.427V63.364ZM138.427 77.5332V78.3332H139.227V77.5332H138.427ZM83.3601 77.5332H82.5601V78.3332H83.3601V77.5332ZM83.3601 3.19372L100.75 3.19372V1.59372L83.3601 1.59372V3.19372ZM99.9495 2.39372L99.9495 63.364H101.55L101.55 2.39372H99.9495ZM100.75 64.164L138.427 64.164V62.564L100.75 62.564V64.164ZM137.627 63.364V77.5332H139.227V63.364H137.627ZM138.427 76.7332L83.3601 76.7332V78.3332L138.427 78.3332V76.7332ZM84.1601 77.5332L84.1601 2.39372H82.5601L82.5601 77.5332H84.1601ZM162.127 73.7762L161.747 74.4801L161.751 74.4819L162.127 73.7762ZM147.422 59.9291L146.733 60.3358L146.738 60.3456L147.422 59.9291ZM147.422 20.1052L146.736 19.6924L146.735 19.6948L147.422 20.1052ZM162.127 6.15069L161.751 5.44502L161.747 5.44684L162.127 6.15069ZM219.019 20.1052L218.333 20.518L218.336 20.5217L219.019 20.1052ZM219.019 59.9291L219.702 60.3456L219.704 60.3419L219.019 59.9291ZM204.313 73.7762L204.693 74.4801L204.313 73.7762ZM195.296 61.0025L195.687 61.7006L195.697 61.6945L195.296 61.0025ZM203.669 52.4151L202.973 52.0197L202.968 52.0301L203.669 52.4151ZM203.669 27.5118L202.967 27.8968L202.973 27.9072L203.669 27.5118ZM195.296 19.0317L194.895 19.7239L194.905 19.7298L195.296 19.0317ZM171.251 19.0317L171.642 19.7298L171.653 19.7238L171.251 19.0317ZM162.771 27.5118L162.076 27.1163L162.07 27.1268L162.771 27.5118ZM162.771 52.4151L162.07 52.8002L162.076 52.8106L162.771 52.4151ZM171.251 61.0025L170.85 61.6946L170.861 61.7005L171.251 61.0025ZM183.274 78.0213C175.593 78.0213 168.675 76.3664 162.504 73.0706L161.751 74.4819C168.174 77.9128 175.355 79.6213 183.274 79.6213V78.0213ZM162.508 73.0724C156.403 69.7742 151.607 65.2561 148.105 59.5126L146.738 60.3456C150.393 66.3382 155.401 71.0515 161.747 74.4801L162.508 73.0724ZM148.11 59.5224C144.682 53.7145 142.962 47.2014 142.962 39.9635H141.362C141.362 47.4672 143.148 54.2645 146.733 60.3358L148.11 59.5224ZM142.962 39.9635C142.962 32.7254 144.682 26.2498 148.108 20.5155L146.735 19.6948C143.148 25.6966 141.362 32.4598 141.362 39.9635H142.962ZM148.107 20.518C151.609 14.7035 156.405 10.1514 162.508 6.85455L161.747 5.44684C155.398 8.87676 150.39 13.6276 146.736 19.6924L148.107 20.518ZM162.504 6.85635C168.675 3.56051 175.593 1.90561 183.274 1.90561V0.305614C175.355 0.305614 168.174 2.0141 161.751 5.44503L162.504 6.85635ZM183.274 1.90561C190.955 1.90561 197.835 3.56054 203.933 6.85455L204.693 5.44684C198.339 2.01407 191.193 0.305614 183.274 0.305614V1.90561ZM203.933 6.85455C210.035 10.1514 214.831 14.7035 218.333 20.518L219.704 19.6924C216.051 13.6276 211.042 8.87676 204.693 5.44684L203.933 6.85455ZM218.336 20.5217C221.832 26.2551 223.586 32.7285 223.586 39.9635H225.186C225.186 32.4568 223.362 25.6913 219.702 19.6887L218.336 20.5217ZM223.586 39.9635C223.586 47.1983 221.832 53.7092 218.333 59.5163L219.704 60.3419C223.362 54.2698 225.186 47.4702 225.186 39.9635H223.586ZM218.336 59.5126C214.834 65.2561 210.038 69.7742 203.933 73.0724L204.693 74.4801C211.04 71.0515 216.048 66.3382 219.702 60.3456L218.336 59.5126ZM203.933 73.0724C197.835 76.3664 190.955 78.0213 183.274 78.0213V79.6213C191.193 79.6213 198.339 77.9129 204.693 74.4801L203.933 73.0724ZM183.274 64.8081C187.836 64.8081 191.98 63.7765 195.687 61.7005L194.905 60.3045C191.456 62.2359 187.585 63.2081 183.274 63.2081V64.8081ZM195.697 61.6945C199.402 59.5456 202.297 56.5766 204.37 52.8002L202.968 52.0301C201.033 55.5529 198.346 58.3088 194.895 60.3105L195.697 61.6945ZM204.364 52.8106C206.515 49.0278 207.582 44.7383 207.582 39.9635H205.982C205.982 44.4916 204.973 48.5032 202.973 52.0197L204.364 52.8106ZM207.582 39.9635C207.582 35.1886 206.515 30.8991 204.364 27.1163L202.973 27.9072C204.973 31.4237 205.982 35.4353 205.982 39.9635H207.582ZM204.37 27.1268C202.295 23.3479 199.398 20.4118 195.687 18.3337L194.905 19.7298C198.35 21.6591 201.035 24.3764 202.968 27.8968L204.37 27.1268ZM195.697 18.3397C191.989 16.1886 187.841 15.1188 183.274 15.1188V16.7188C187.58 16.7188 191.447 17.7244 194.895 19.7238L195.697 18.3397ZM183.274 15.1188C178.707 15.1188 174.559 16.1886 170.85 18.3397L171.653 19.7238C175.1 17.7244 178.967 16.7188 183.274 16.7188V15.1188ZM170.861 18.3337C167.152 20.4104 164.222 23.3432 162.076 27.1163L163.467 27.9072C165.472 24.3811 168.195 21.6605 171.642 19.7298L170.861 18.3337ZM162.07 27.1268C159.994 30.9077 158.966 35.1934 158.966 39.9635H160.566C160.566 35.4305 161.541 31.4151 163.473 27.8968L162.07 27.1268ZM158.966 39.9635C158.966 44.7335 159.994 49.0192 162.07 52.8002L163.473 52.0301C161.541 48.5118 160.566 44.4964 160.566 39.9635H158.966ZM162.076 52.8106C164.22 56.5814 167.148 59.5471 170.85 61.6945L171.653 60.3105C168.199 58.3074 165.473 55.5481 163.467 52.0197L162.076 52.8106ZM170.861 61.7005C174.568 63.7765 178.712 64.8081 183.274 64.8081V63.2081C178.962 63.2081 175.091 62.2359 171.642 60.3045L170.861 61.7005ZM288.228 38.7827V37.9827H287.428V38.7827H288.228ZM304.114 38.7827H304.914V37.9827H304.114V38.7827ZM304.114 69.2679L304.596 69.9065L304.914 69.6665V69.2679H304.114ZM289.945 76.3524L290.18 77.1173L290.18 77.1173L289.945 76.3524ZM252.697 73.8836L252.317 74.5875L252.323 74.5908L252.697 73.8836ZM237.991 60.0364L237.302 60.4432L237.308 60.4529L237.991 60.0364ZM237.991 19.9978L237.306 19.585L237.305 19.5875L237.991 19.9978ZM252.805 6.15069L253.175 6.8597L253.182 6.85635L252.805 6.15069ZM291.985 4.43322L292.29 3.69388L292.29 3.69388L291.985 4.43322ZM305.51 14.094L306.052 14.6819L306.621 14.1566L306.115 13.5708L305.51 14.094ZM294.346 24.3989L293.766 24.9497L294.309 25.5218L294.889 24.9867L294.346 24.3989ZM262.143 18.9244L262.523 19.6288L262.523 19.6288L262.143 18.9244ZM253.449 27.4044L254.144 27.7999L253.449 27.4044ZM253.449 52.4151L252.753 52.8106L252.753 52.8106L253.449 52.4151ZM262.036 61.0025L261.641 61.6979L261.649 61.7025L261.657 61.7069L262.036 61.0025ZM288.228 60.7878L288.605 61.493L289.028 61.2668V60.7878H288.228ZM288.228 39.5827L304.114 39.5827V37.9827L288.228 37.9827V39.5827ZM303.314 38.7827V69.2679H304.914V38.7827H303.314ZM303.632 68.6292C299.635 71.6449 294.997 73.9663 289.71 75.5876L290.18 77.1173C295.627 75.4467 300.436 73.0451 304.596 69.9065L303.632 68.6292ZM289.71 75.5876C284.417 77.211 279.093 78.0213 273.736 78.0213V79.6213C279.257 79.6213 284.739 78.7857 290.18 77.1173L289.71 75.5876ZM273.736 78.0213C266.052 78.0213 259.17 76.4009 253.071 73.1763L252.323 74.5908C258.676 77.9499 265.82 79.6213 273.736 79.6213V78.0213ZM253.078 73.1797C246.972 69.8815 242.177 65.3634 238.674 59.62L237.308 60.4529C240.962 66.4455 245.97 71.1588 252.317 74.5874L253.078 73.1797ZM238.68 59.6297C235.252 53.823 233.532 47.2745 233.532 39.9635H231.932C231.932 47.5372 233.718 54.3707 237.303 60.4431L238.68 59.6297ZM233.532 39.9635C233.532 32.6523 235.252 26.1413 238.678 20.4082L237.305 19.5875C233.718 25.5904 231.932 32.3898 231.932 39.9635H233.532ZM238.677 20.4106C242.177 14.6 247.005 10.0853 253.175 6.85967L252.434 5.44171C246.01 8.79976 240.962 13.5165 237.306 19.585L238.677 20.4106ZM253.182 6.85635C259.351 3.56108 266.304 1.90561 274.058 1.90561V0.305614C266.069 0.305614 258.853 2.01354 252.428 5.44503L253.182 6.85635ZM274.058 1.90561C280.551 1.90561 286.421 2.99921 291.679 5.17255L292.29 3.69388C286.814 1.43042 280.733 0.305614 274.058 0.305614V1.90561ZM291.679 5.17255C296.935 7.34526 301.34 10.4934 304.904 14.6172L306.115 13.5708C302.38 9.25039 297.768 5.95798 292.29 3.69388L291.679 5.17255ZM304.967 13.5062L293.803 23.811L294.889 24.9867L306.052 14.6819L304.967 13.5062ZM294.926 23.848C289.413 18.0406 282.729 15.1188 274.917 15.1188V16.7188C282.276 16.7188 288.545 19.4504 293.766 24.9497L294.926 23.848ZM274.917 15.1188C270.008 15.1188 265.617 16.1455 261.764 18.22L262.523 19.6288C266.112 17.6959 270.237 16.7188 274.917 16.7188V15.1188ZM261.764 18.22C257.912 20.2945 254.903 23.2278 252.753 27.009L254.144 27.7999C256.145 24.2818 258.933 21.5618 262.523 19.6288L261.764 18.22ZM252.753 27.009C250.601 30.7936 249.536 35.1194 249.536 39.9635H251.136C251.136 35.3614 252.146 31.3145 254.144 27.7999L252.753 27.009ZM249.536 39.9635C249.536 44.7383 250.602 49.0278 252.753 52.8106L254.144 52.0197C252.145 48.5032 251.136 44.4916 251.136 39.9635H249.536ZM252.753 52.8106C254.9 56.5854 257.866 59.5515 261.641 61.6979L262.432 60.3071C258.907 58.303 256.148 55.5442 254.144 52.0197L252.753 52.8106ZM261.657 61.7069C265.508 63.7805 269.863 64.8081 274.702 64.8081V63.2081C270.096 63.2081 266.007 62.232 262.415 60.2981L261.657 61.7069ZM274.702 64.8081C279.83 64.8081 284.47 63.7083 288.605 61.493L287.85 60.0826C283.97 62.1611 279.594 63.2081 274.702 63.2081V64.8081ZM289.028 60.7878V38.7827H287.428V60.7878H289.028Z" fill="#E2E2E2"/>
</svg>
