<svg width="16" height="16" viewBox="0 0 16 16" fill="none" xmlns="http://www.w3.org/2000/svg">
<path d="M14.748 7.49007H8.70132V1.4433C8.70132 1.02616 8.36266 0.6875 7.94539 0.6875C7.52826 0.6875 7.18959 1.02616 7.18959 1.4433V7.49007H1.14282C0.725685 7.49007 0.387024 7.82873 0.387024 8.24587C0.387024 8.66314 0.725685 9.0018 1.14282 9.0018H7.18959V15.0484C7.18959 15.4657 7.52826 15.8044 7.94539 15.8044C8.36266 15.8044 8.70132 15.4657 8.70132 15.0484V9.0018H14.748C15.1652 9.0018 15.5039 8.66314 15.5039 8.24587C15.5039 7.82873 15.1652 7.49007 14.748 7.49007Z" fill="white"/>
</svg>
