<svg width="55" height="38" viewBox="0 0 55 38" fill="none" xmlns="http://www.w3.org/2000/svg">
<path d="M44.7201 27.0986C43.3951 27.0986 42.1363 27.6176 41.1867 28.5561C40.2371 29.5058 39.707 30.7425 39.707 32.0675C39.707 33.3926 40.226 34.6293 41.1867 35.5789C42.1473 36.5175 43.3951 37.0365 44.7201 37.0365C47.4365 37.0365 49.6449 34.806 49.6449 32.0675C49.6449 29.3291 47.4365 27.0986 44.7201 27.0986ZM44.7201 34.828C43.1963 34.828 41.9155 33.5692 41.9155 32.0675C41.9155 30.5658 43.1963 29.307 44.7201 29.307C46.2219 29.307 47.4365 30.5437 47.4365 32.0675C47.4365 33.5913 46.2219 34.828 44.7201 34.828ZM46.001 10.5465C45.8023 10.3588 45.5373 10.2594 45.2612 10.2594H39.5966C38.9893 10.2594 38.4924 10.7563 38.4924 11.3636V20.4181C38.4924 21.0254 38.9893 21.5223 39.5966 21.5223H48.5849C49.1922 21.5223 49.6891 21.0254 49.6891 20.4181V14.356C49.6891 14.0468 49.5566 13.7487 49.3247 13.5389L46.001 10.5465ZM47.4807 19.3139H40.7008V12.4568H44.8306L47.4807 14.8419V19.3139ZM17.7554 27.0986C16.4303 27.0986 15.1715 27.6176 14.2219 28.5561C13.2723 29.5058 12.7423 30.7425 12.7423 32.0675C12.7423 33.3926 13.2612 34.6293 14.2219 35.5789C15.1826 36.5175 16.4303 37.0365 17.7554 37.0365C20.4717 37.0365 22.6801 34.806 22.6801 32.0675C22.6801 29.3291 20.4717 27.0986 17.7554 27.0986ZM17.7554 34.828C16.2316 34.828 14.9507 33.5692 14.9507 32.0675C14.9507 30.5658 16.2316 29.307 17.7554 29.307C19.2571 29.307 20.4717 30.5437 20.4717 32.0675C20.4717 33.5913 19.2571 34.828 17.7554 34.828ZM10.3903 28.4568H8.17084V25.5196C8.17084 24.9123 7.67395 24.4154 7.06663 24.4154C6.45932 24.4154 5.96242 24.9123 5.96242 25.5196V29.561C5.96242 30.1683 6.45932 30.6652 7.06663 30.6652H10.3903C10.9976 30.6652 11.4945 30.1683 11.4945 29.561C11.4945 28.9537 10.9976 28.4568 10.3903 28.4568ZM15.9886 22.4388C15.9886 21.8315 15.4917 21.3346 14.8844 21.3346H1.49038C0.883063 21.3346 0.386169 21.8315 0.386169 22.4388C0.386169 23.0461 0.883063 23.543 1.49038 23.543H14.8844C15.4917 23.543 15.9886 23.0572 15.9886 22.4388ZM3.73192 18.4526L17.126 18.5299C17.7333 18.5299 18.2302 18.0441 18.2412 17.4368C18.2523 16.8184 17.7554 16.3215 17.1481 16.3215L3.75401 16.2442C3.74296 16.2442 3.74296 16.2442 3.74296 16.2442C3.13565 16.2442 2.63875 16.7301 2.63875 17.3374C2.62771 17.9557 3.12461 18.4526 3.73192 18.4526ZM5.98451 13.4395H19.3786C19.9859 13.4395 20.4828 12.9426 20.4828 12.3353C20.4828 11.728 19.9859 11.2311 19.3786 11.2311H5.98451C5.37719 11.2311 4.8803 11.728 4.8803 12.3353C4.8803 12.9426 5.37719 13.4395 5.98451 13.4395ZM54.2053 11.9488L46.2992 5.40089C46.1004 5.23526 45.8575 5.14692 45.5925 5.14692H36.295V1.17177C36.295 0.56446 35.7981 0.0675659 35.1908 0.0675659H7.06663C6.45932 0.0675659 5.96242 0.56446 5.96242 1.17177V9.25458C5.96242 9.8619 6.45932 10.3588 7.06663 10.3588C7.67395 10.3588 8.17084 9.8619 8.17084 9.25458V2.27598H34.0977V28.4568H25.0431C24.4358 28.4568 23.9389 28.9537 23.9389 29.561C23.9389 30.1683 24.4358 30.6652 25.0431 30.6652H38.5255C39.1328 30.6652 39.6297 30.1683 39.6297 29.561C39.6297 28.9537 39.1328 28.4568 38.5255 28.4568H36.3061V7.35534H45.206L52.4054 13.3181L52.3281 28.4347H51.1798C50.5724 28.4347 50.0756 28.9316 50.0756 29.5389C50.0756 30.1462 50.5724 30.6431 51.1798 30.6431H53.4213C54.0286 30.6431 54.5255 30.1572 54.5255 29.5499L54.6138 12.8101C54.6028 12.4789 54.4593 12.1586 54.2053 11.9488Z" fill="#464646"/>
</svg>
