<svg width="17" height="17" viewBox="0 0 17 17" fill="none" xmlns="http://www.w3.org/2000/svg">
<path d="M11.2173 9.9367C13.1739 7.22811 12.5195 3.47752 9.75674 1.55984C6.99398 -0.357843 3.16836 0.283217 1.21232 2.99226C-0.743723 5.70084 -0.0898397 9.45098 2.67339 11.3687C4.64532 12.7374 7.25244 12.8428 9.33235 11.6386L13.8516 16.0426C14.3395 16.5462 15.1514 16.5663 15.6651 16.0879C16.1787 15.61 16.1993 14.8141 15.7118 14.3105C15.6964 14.2944 15.6814 14.2798 15.6651 14.2647L11.2173 9.9367ZM6.21109 10.3473C4.0279 10.3477 2.25788 8.61379 2.25648 6.47341C2.25601 4.33303 4.02463 2.59772 6.20829 2.59681C8.38868 2.59589 10.1578 4.32708 10.162 6.46471C10.1657 8.60555 8.39803 10.3436 6.2139 10.3473C6.21296 10.3473 6.21249 10.3473 6.21109 10.3473Z" fill="#C0C0C0"/>
</svg>
