<svg width="60" height="61" viewBox="0 0 60 61" fill="none" xmlns="http://www.w3.org/2000/svg">
<rect y="0.284485" width="60" height="60" rx="4" fill="#FFD800"/>
<path d="M43.3387 29.072H19.1478L28.4109 20.2491C28.8959 19.7871 28.9147 19.0195 28.4527 18.5345C27.9913 18.05 27.2238 18.0306 26.7381 18.4926L16.1593 28.5694C15.7016 29.0278 15.4487 29.6365 15.4487 30.2846C15.4487 30.9322 15.7016 31.5415 16.1805 32.0199L26.7387 42.076C26.9733 42.2998 27.2741 42.4107 27.5748 42.4107C27.8949 42.4107 28.2151 42.2846 28.4533 42.0342C28.9153 41.5491 28.8965 40.7822 28.4115 40.3202L19.1096 31.4972H43.3387C44.0081 31.4972 44.5513 30.954 44.5513 30.2846C44.5513 29.6153 44.0081 29.072 43.3387 29.072Z" fill="black"/>
</svg>
